graph LR
    linkStyle default interpolate basis
    %%--------------NODES -----------------------------------------------------
    acarts("Art Design")
    click acarts callback "Tooltip for a callback"
    acartf("Art Facial")
    acartl("Art Look")
    acmod("Modeling")
    acmodf("Modeling Facial")
    acsurf("Surfacing")
    accfxh("Cfx Hair")
    accfxc("Cfx Cloth")
    acriglo("Rig-Low")
    acrighi("Rig-High")
    acfx("Fx")
    %%-------------- LINKS ----------------------------------------------------
    acarts --> acmod
    acarts --> acartf
    acartf --> acmodf
    acarts --> acartl
    acartl --> acsurf
    acmod --> acmodf
    acmod --> acsurf
    acmod --> acriglo
    acmod --> acrighi
    acmodf --> acrighi
    acsurf --> acrighi
    acsurf -.->|optional| acfx
    acmod -.->|optional| accfxh
    acmod --> accfxc
    accfxh --> acrighi
    acrighi -.->|optional| accfxc
    acmod -.->|optional| acfx
    acfx -.->|optional| acrighi
    %%-------------- SUBGRAPH -------------------------------------------------
    subgraph Art
        acarts
        acartf
        acartl
    end
    subgraph Modeling
        acmod
        acmodf
    end
    subgraph Cfx
        accfxh
        accfxc
    end
    subgraph Surfacing
        acsurf
    end
    subgraph Rig
        acriglo
        acrighi
    end
    subgraph Fx
        acfx
    end
    %%-------------- CLASSES --------------------------------------------------
    classDef Art fill:#49A5FF
    classDef Modeling fill:#F8D5C6
    classDef Cfx fill:#80FF9F
    classDef Surfacing fill:#F668FF
    classDef Rig fill:#FF86B2
    classDef Fx fill:#FF8C76
    %%-------------- ASSIGN CLASSES -------------------------------------------
    class acarts,acartf,acartl Art
    class acmod,acmodf Modeling
    class accfxh,accfxc Cfx
    class acsurf Surfacing
    class acriglo,acrighi Rig
    class acfx Fx