graph LR
    linkStyle default interpolate basis
    %%-------------- NODES ----------------------------------------------------
    pro_getUsdDescTemplate("Process<br>.<br>Get<br>USD Desc Template")
    pro_createUsdDesc("Process<br>.<br>Create<br>USD Desc")
    pro_pubAssetUSD("Process<br>.<br>Publish<br>USD Asset Desc<br>MyAsset.usda")
    pro_getMayaSnTempl("Process<br>.<br>Get<br>Maya Scene Template")
    pro_buildMayaSn("Process<br>.<br>Build<br>Maya Scene")
    pro_setupMayaSn("Process<br>.<br>Setup<br>Maya Scene")
    pro_publishMayaSn("Process<br>.<br>Publish<br>Maya Scene")
    %%-------------- LINKS ----------------------------------------------------
    pro_getUsdDescTemplate --> pro_createUsdDesc
    pro_createUsdDesc --> pro_pubAssetUSD
    pro_pubAssetUSD --> pro_buildMayaSn
    pro_getMayaSnTempl --> pro_buildMayaSn
    pro_buildMayaSn --> pro_setupMayaSn
    pro_setupMayaSn --> pro_publishMayaSn
    %%-------------- SUBGRAPH -------------------------------------------------
    %%-------------- CLASSES --------------------------------------------------
    classDef Process fill:#FF8ED4
    %%-------------- ASSIGN CLASSES -------------------------------------------
    class pro_getUsdDescTemplate,pro_createUsdDesc,pro_pubAssetUSD,pro_getMayaSnTempl,pro_buildMayaSn,pro_setupMayaSn,pro_publishMayaSn Process