graph LR
    linkStyle default interpolate basis
    %%-------------- NODES ----------------------------------------------------
    usr_setTaskRdy("User<br>.<br>Set SG Task<br>model = rdy")
    rbt_setTaskRdy("Rabbit<br>.<br>")
    act_buildScene("Action<br>.<br>Build Scene")
    rbt_buildScene("Rabbit<br>.<br>")
    act_notifyUser("Action<br>.<br>Notify User")
    act_syncToUserWkst("Action<br>.<br>Ubiquity Send<br>to User")
    %%-------------- LINKS ----------------------------------------------------
    usr_setTaskRdy --> rbt_setTaskRdy
    rbt_setTaskRdy --> act_buildScene
    act_buildScene --> rbt_buildScene
    rbt_buildScene --> act_notifyUser
    rbt_buildScene --> act_syncToUserWkst
    %%-------------- SUBGRAPH -------------------------------------------------
    %%-------------- CLASSES --------------------------------------------------
    classDef User fill:#FFEA6F
    classDef Rabbit fill:#FFB286
    classDef Action fill:#6FA2FF
    %%-------------- ASSIGN CLASSES -------------------------------------------
    class usr_setTaskRdy User
    class rbt_setTaskRdy,rbt_buildScene Rabbit
    class act_buildScene,act_notifyUser,act_syncToUserWkst Action